Retail_project
…
#exact values of intervals
mod_arima %>% 
  select(arima2) %>%
  forecast(h = "2 years") %>%
  hilo(level = 95) %>% 
  mutate(
    lower = `95%`$lower,
    upper = `95%`$upper
  )

## # A tsibble: 24 x 7 [1M]
## # Key:       .model [1]
##    .model    Month         Turnover .mean                  `95%` lower upper
##    <chr>     <mth>           <dist> <dbl>                 <hilo> <dbl> <dbl>
##  1 arima2 2017 Jan t(N(9.2, 0.013))  429. [385.6063, 474.3581]95  386.  474.
##  2 arima2 2017 Feb   t(N(9, 0.021))  391. [341.4934, 444.4020]95  341.  444.
##  3 arima2 2017 Mar t(N(9.2, 0.026))  425. [366.0868, 489.5322]95  366.  490.
##  4 arima2 2017 Apr  t(N(9.2, 0.03))  418. [356.0284, 486.3677]95  356.  486.
##  5 arima2 2017 May t(N(9.2, 0.034))  428. [361.9764, 502.0480]95  362.  502.
##  6 arima2 2017 Jun t(N(9.2, 0.036))  420. [351.7922, 495.1175]95  352.  495.
##  7 arima2 2017 Jul t(N(9.3, 0.039))  453. [377.8343, 536.4804]95  378.  536.
##  8 arima2 2017 Aug t(N(9.3, 0.042))  456. [378.4315, 543.2360]95  378.  543.
##  9 arima2 2017 Sep t(N(9.3, 0.044))  451. [372.2138, 540.3118]95  372.  540.
## 10 arima2 2017 Oct t(N(9.4, 0.047))  467. [383.7887, 561.8524]95  384.  562.
## #  with 14 more rows

mod_ets %>% 
  select(auto) %>%
  forecast(h = "2 years") %>%
  hilo(level = 95) %>% 
  mutate(
    lower = `95%`$lower,
    upper = `95%`$upper
  )

## # A tsibble: 24 x 7 [1M]
## # Key:       .model [1]
##    .model    Month         Turnover .mean                  `95%` lower upper
##    <chr>     <mth>           <dist> <dbl>                 <hilo> <dbl> <dbl>
##  1 auto   2017 Jan t(N(9.5, 0.015))  428. [384.7037, 473.3457]95  385.  473.
##  2 auto   2017 Feb  t(N(9.3, 0.02))  395. [348.4793, 445.4907]95  348.  445.
##  3 auto   2017 Mar t(N(9.5, 0.026))  432. [375.4366, 493.5746]95  375.  494.
##  4 auto   2017 Apr t(N(9.4, 0.031))  423. [362.0739, 489.8712]95  362.  490.
##  5 auto   2017 May t(N(9.5, 0.037))  437. [369.5273, 512.1358]95  370.  512.
##  6 auto   2017 Jun t(N(9.4, 0.042))  427. [356.2842, 506.1518]95  356.  506.
##  7 auto   2017 Jul t(N(9.6, 0.048))  462. [381.8417, 552.4055]95  382.  552.
##  8 auto   2017 Aug t(N(9.6, 0.053))  463. [378.1397, 558.4767]95  378.  558.
##  9 auto   2017 Sep t(N(9.6, 0.059))  456. [368.7595, 555.9039]95  369.  556.
## 10 auto   2017 Oct t(N(9.7, 0.064))  475. [380.5557, 583.2122]95  381.  583.
## #  with 14 more rows
…
